{"frames": [

{
	"filename": "boxing_01",
	"frame": {"x":923,"y":1072,"w":127,"h":268},
	"rotated": false,
	"trimmed": true,
	"spriteSourceSize": {"x":36,"y":7,"w":127,"h":268},
	"sourceSize": {"w":224,"h":275}
},
{
	"filename": "boxing_02",
	"frame": {"x":1662,"y":809,"w":126,"h":268},
	"rotated": false,
	"trimmed": true,
	"spriteSourceSize": {"x":36,"y":7,"w":126,"h":268},
	"sourceSize": {"w":224,"h":275}
},
{
	"filename": "boxing_03",
	"frame": {"x":2959,"y":540,"w":137,"h":267},
	"rotated": false,
	"trimmed": true,
	"spriteSourceSize": {"x":25,"y":8,"w":137,"h":267},
	"sourceSize": {"w":224,"h":275}
},
{
	"filename": "boxing_04",
	"frame": {"x":1790,"y":808,"w":146,"h":267},
	"rotated": false,
	"trimmed": true,
	"spriteSourceSize": {"x":16,"y":8,"w":146,"h":267},
	"sourceSize": {"w":224,"h":275}
},
{
	"filename": "boxing_05",
	"frame": {"x":3032,"y":271,"w":137,"h":267},
	"rotated": false,
	"trimmed": true,
	"spriteSourceSize": {"x":25,"y":8,"w":137,"h":267},
	"sourceSize": {"w":224,"h":275}
},
{
	"filename": "boxing_06",
	"frame": {"x":3406,"y":1071,"w":127,"h":266},
	"rotated": false,
	"trimmed": true,
	"spriteSourceSize": {"x":36,"y":9,"w":127,"h":266},
	"sourceSize": {"w":224,"h":275}
},
{
	"filename": "boxing_07",
	"frame": {"x":3652,"y":536,"w":127,"h":266},
	"rotated": false,
	"trimmed": true,
	"spriteSourceSize": {"x":36,"y":9,"w":127,"h":266},
	"sourceSize": {"w":224,"h":275}
},
{
	"filename": "boxing_08",
	"frame": {"x":3098,"y":540,"w":138,"h":267},
	"rotated": false,
	"trimmed": true,
	"spriteSourceSize": {"x":36,"y":8,"w":138,"h":267},
	"sourceSize": {"w":224,"h":275}
},
{
	"filename": "boxing_09",
	"frame": {"x":1786,"y":539,"w":150,"h":267},
	"rotated": false,
	"trimmed": true,
	"spriteSourceSize": {"x":36,"y":8,"w":150,"h":267},
	"sourceSize": {"w":224,"h":275}
},
{
	"filename": "boxing_10",
	"frame": {"x":2231,"y":272,"w":158,"h":268},
	"rotated": false,
	"trimmed": true,
	"spriteSourceSize": {"x":36,"y":7,"w":158,"h":268},
	"sourceSize": {"w":224,"h":275}
},
{
	"filename": "boxing_11",
	"frame": {"x":727,"y":537,"w":164,"h":268},
	"rotated": false,
	"trimmed": true,
	"spriteSourceSize": {"x":36,"y":7,"w":164,"h":268},
	"sourceSize": {"w":224,"h":275}
},
{
	"filename": "boxing_12",
	"frame": {"x":559,"y":537,"w":166,"h":267},
	"rotated": false,
	"trimmed": true,
	"spriteSourceSize": {"x":37,"y":8,"w":166,"h":267},
	"sourceSize": {"w":224,"h":275}
},
{
	"filename": "boxing_13",
	"frame": {"x":3061,"y":1,"w":172,"h":264},
	"rotated": false,
	"trimmed": true,
	"spriteSourceSize": {"x":37,"y":11,"w":172,"h":264},
	"sourceSize": {"w":224,"h":275}
},
{
	"filename": "boxing_14",
	"frame": {"x":390,"y":537,"w":167,"h":267},
	"rotated": false,
	"trimmed": true,
	"spriteSourceSize": {"x":36,"y":8,"w":167,"h":267},
	"sourceSize": {"w":224,"h":275}
},
{
	"filename": "boxing_15",
	"frame": {"x":893,"y":538,"w":164,"h":268},
	"rotated": false,
	"trimmed": true,
	"spriteSourceSize": {"x":37,"y":7,"w":164,"h":268},
	"sourceSize": {"w":224,"h":275}
},
{
	"filename": "boxing_16",
	"frame": {"x":2391,"y":272,"w":158,"h":268},
	"rotated": false,
	"trimmed": true,
	"spriteSourceSize": {"x":37,"y":7,"w":158,"h":268},
	"sourceSize": {"w":224,"h":275}
},
{
	"filename": "boxing_17",
	"frame": {"x":2225,"y":542,"w":150,"h":267},
	"rotated": false,
	"trimmed": true,
	"spriteSourceSize": {"x":37,"y":8,"w":150,"h":267},
	"sourceSize": {"w":224,"h":275}
},
{
	"filename": "boxing_18",
	"frame": {"x":262,"y":1072,"w":139,"h":268},
	"rotated": false,
	"trimmed": true,
	"spriteSourceSize": {"x":37,"y":7,"w":139,"h":268},
	"sourceSize": {"w":224,"h":275}
},
{
	"filename": "boxing_19",
	"frame": {"x":3801,"y":804,"w":127,"h":266},
	"rotated": false,
	"trimmed": true,
	"spriteSourceSize": {"x":37,"y":9,"w":127,"h":266},
	"sourceSize": {"w":224,"h":275}
},
{
	"filename": "boxing_20",
	"frame": {"x":3311,"y":269,"w":137,"h":267},
	"rotated": false,
	"trimmed": true,
	"spriteSourceSize": {"x":27,"y":8,"w":137,"h":267},
	"sourceSize": {"w":224,"h":275}
},
{
	"filename": "boxing_21",
	"frame": {"x":3010,"y":1072,"w":126,"h":268},
	"rotated": false,
	"trimmed": true,
	"spriteSourceSize": {"x":36,"y":7,"w":126,"h":268},
	"sourceSize": {"w":224,"h":275}
},
{
	"filename": "boxing_22",
	"frame": {"x":923,"y":1072,"w":127,"h":268},
	"rotated": false,
	"trimmed": true,
	"spriteSourceSize": {"x":36,"y":7,"w":127,"h":268},
	"sourceSize": {"w":224,"h":275}
},
{
	"filename": "next_level_01",
	"frame": {"x":2545,"y":1,"w":171,"h":268},
	"rotated": false,
	"trimmed": true,
	"spriteSourceSize": {"x":14,"y":7,"w":171,"h":268},
	"sourceSize": {"w":200,"h":275}
},
{
	"filename": "next_level_02",
	"frame": {"x":2890,"y":1,"w":169,"h":268},
	"rotated": false,
	"trimmed": true,
	"spriteSourceSize": {"x":16,"y":8,"w":169,"h":268},
	"sourceSize": {"w":200,"h":276}
},
{
	"filename": "next_level_03",
	"frame": {"x":3579,"y":1,"w":169,"h":265},
	"rotated": false,
	"trimmed": true,
	"spriteSourceSize": {"x":16,"y":11,"w":169,"h":265},
	"sourceSize": {"w":200,"h":276}
},
{
	"filename": "next_level_04",
	"frame": {"x":1,"y":800,"w":187,"h":264},
	"rotated": false,
	"trimmed": true,
	"spriteSourceSize": {"x":8,"y":11,"w":187,"h":264},
	"sourceSize": {"w":200,"h":275}
},
{
	"filename": "next_level_05",
	"frame": {"x":203,"y":266,"w":198,"h":264},
	"rotated": false,
	"trimmed": true,
	"spriteSourceSize": {"x":2,"y":11,"w":198,"h":264},
	"sourceSize": {"w":200,"h":275}
},
{
	"filename": "next_level_06",
	"frame": {"x":203,"y":1,"w":200,"h":263},
	"rotated": false,
	"trimmed": true,
	"spriteSourceSize": {"x":0,"y":12,"w":200,"h":263},
	"sourceSize": {"w":200,"h":275}
},
{
	"filename": "next_level_07",
	"frame": {"x":1,"y":535,"w":200,"h":263},
	"rotated": false,
	"trimmed": true,
	"spriteSourceSize": {"x":0,"y":12,"w":200,"h":263},
	"sourceSize": {"w":200,"h":275}
},
{
	"filename": "next_level_08",
	"frame": {"x":1,"y":1,"w":200,"h":265},
	"rotated": false,
	"trimmed": true,
	"spriteSourceSize": {"x":0,"y":11,"w":200,"h":265},
	"sourceSize": {"w":200,"h":276}
},
{
	"filename": "next_level_09",
	"frame": {"x":1,"y":268,"w":200,"h":265},
	"rotated": false,
	"trimmed": true,
	"spriteSourceSize": {"x":0,"y":11,"w":200,"h":265},
	"sourceSize": {"w":200,"h":276}
},
{
	"filename": "next_level_10",
	"frame": {"x":203,"y":532,"w":185,"h":264},
	"rotated": false,
	"trimmed": true,
	"spriteSourceSize": {"x":7,"y":11,"w":185,"h":264},
	"sourceSize": {"w":200,"h":275}
},
{
	"filename": "next_level_11",
	"frame": {"x":405,"y":1,"w":185,"h":264},
	"rotated": false,
	"trimmed": true,
	"spriteSourceSize": {"x":7,"y":11,"w":185,"h":264},
	"sourceSize": {"w":200,"h":275}
},
{
	"filename": "next_level_12",
	"frame": {"x":592,"y":1,"w":185,"h":264},
	"rotated": false,
	"trimmed": true,
	"spriteSourceSize": {"x":7,"y":11,"w":185,"h":264},
	"sourceSize": {"w":200,"h":275}
},
{
	"filename": "next_level_13",
	"frame": {"x":779,"y":1,"w":178,"h":264},
	"rotated": false,
	"trimmed": true,
	"spriteSourceSize": {"x":0,"y":11,"w":178,"h":264},
	"sourceSize": {"w":200,"h":275}
},
{
	"filename": "next_level_14",
	"frame": {"x":959,"y":1,"w":178,"h":264},
	"rotated": false,
	"trimmed": true,
	"spriteSourceSize": {"x":0,"y":11,"w":178,"h":264},
	"sourceSize": {"w":200,"h":275}
},
{
	"filename": "player_down_01",
	"frame": {"x":1052,"y":1072,"w":127,"h":268},
	"rotated": false,
	"trimmed": true,
	"spriteSourceSize": {"x":23,"y":7,"w":127,"h":268},
	"sourceSize": {"w":170,"h":275}
},
{
	"filename": "player_down_02",
	"frame": {"x":1181,"y":1072,"w":127,"h":268},
	"rotated": false,
	"trimmed": true,
	"spriteSourceSize": {"x":23,"y":7,"w":127,"h":268},
	"sourceSize": {"w":170,"h":275}
},
{
	"filename": "player_down_03",
	"frame": {"x":2752,"y":1072,"w":127,"h":268},
	"rotated": false,
	"trimmed": true,
	"spriteSourceSize": {"x":23,"y":7,"w":127,"h":268},
	"sourceSize": {"w":170,"h":275}
},
{
	"filename": "player_down_04",
	"frame": {"x":2881,"y":1072,"w":127,"h":268},
	"rotated": false,
	"trimmed": true,
	"spriteSourceSize": {"x":23,"y":7,"w":127,"h":268},
	"sourceSize": {"w":170,"h":275}
},
{
	"filename": "player_down_05",
	"frame": {"x":3266,"y":1071,"w":138,"h":262},
	"rotated": false,
	"trimmed": true,
	"spriteSourceSize": {"x":18,"y":13,"w":138,"h":262},
	"sourceSize": {"w":170,"h":275}
},
{
	"filename": "player_down_06",
	"frame": {"x":2519,"y":814,"w":139,"h":259},
	"rotated": false,
	"trimmed": true,
	"spriteSourceSize": {"x":16,"y":16,"w":139,"h":259},
	"sourceSize": {"w":170,"h":275}
},
{
	"filename": "player_down_07",
	"frame": {"x":1938,"y":812,"w":127,"h":254},
	"rotated": false,
	"trimmed": true,
	"spriteSourceSize": {"x":17,"y":21,"w":127,"h":254},
	"sourceSize": {"w":170,"h":275}
},
{
	"filename": "player_down_08",
	"frame": {"x":1107,"y":813,"w":139,"h":257},
	"rotated": false,
	"trimmed": true,
	"spriteSourceSize": {"x":17,"y":18,"w":139,"h":257},
	"sourceSize": {"w":170,"h":275}
},
{
	"filename": "player_down_09",
	"frame": {"x":2227,"y":811,"w":147,"h":262},
	"rotated": false,
	"trimmed": true,
	"spriteSourceSize": {"x":16,"y":13,"w":147,"h":262},
	"sourceSize": {"w":170,"h":275}
},
{
	"filename": "player_down_10",
	"frame": {"x":1585,"y":1079,"w":149,"h":261},
	"rotated": false,
	"trimmed": true,
	"spriteSourceSize": {"x":17,"y":14,"w":149,"h":261},
	"sourceSize": {"w":170,"h":275}
},
{
	"filename": "player_down_11",
	"frame": {"x":2183,"y":1075,"w":143,"h":265},
	"rotated": false,
	"trimmed": true,
	"spriteSourceSize": {"x":17,"y":10,"w":143,"h":265},
	"sourceSize": {"w":170,"h":275}
},
{
	"filename": "player_down_12",
	"frame": {"x":1310,"y":1071,"w":145,"h":269},
	"rotated": false,
	"trimmed": true,
	"spriteSourceSize": {"x":15,"y":6,"w":145,"h":269},
	"sourceSize": {"w":170,"h":275}
},
{
	"filename": "player_down_13",
	"frame": {"x":3580,"y":268,"w":135,"h":266},
	"rotated": false,
	"trimmed": true,
	"spriteSourceSize": {"x":14,"y":9,"w":135,"h":266},
	"sourceSize": {"w":170,"h":275}
},
{
	"filename": "player_down_14",
	"frame": {"x":2033,"y":1068,"w":148,"h":265},
	"rotated": false,
	"trimmed": true,
	"spriteSourceSize": {"x":16,"y":10,"w":148,"h":265},
	"sourceSize": {"w":170,"h":275}
},
{
	"filename": "player_down_15",
	"frame": {"x":955,"y":813,"w":150,"h":257},
	"rotated": false,
	"trimmed": true,
	"spriteSourceSize": {"x":16,"y":17,"w":150,"h":257},
	"sourceSize": {"w":170,"h":275}
},
{
	"filename": "player_down_16",
	"frame": {"x":2660,"y":801,"w":146,"h":262},
	"rotated": false,
	"trimmed": true,
	"spriteSourceSize": {"x":11,"y":13,"w":146,"h":262},
	"sourceSize": {"w":170,"h":275}
},
{
	"filename": "player_down_17",
	"frame": {"x":1248,"y":813,"w":143,"h":256},
	"rotated": false,
	"trimmed": true,
	"spriteSourceSize": {"x":12,"y":19,"w":143,"h":256},
	"sourceSize": {"w":170,"h":275}
},
{
	"filename": "player_down_18",
	"frame": {"x":3518,"y":538,"w":132,"h":251},
	"rotated": false,
	"trimmed": true,
	"spriteSourceSize": {"x":13,"y":24,"w":132,"h":251},
	"sourceSize": {"w":170,"h":275}
},
{
	"filename": "player_down_19",
	"frame": {"x":1393,"y":813,"w":128,"h":256},
	"rotated": false,
	"trimmed": true,
	"spriteSourceSize": {"x":17,"y":19,"w":128,"h":256},
	"sourceSize": {"w":170,"h":275}
},
{
	"filename": "player_down_20",
	"frame": {"x":403,"y":1072,"w":128,"h":268},
	"rotated": false,
	"trimmed": true,
	"spriteSourceSize": {"x":24,"y":7,"w":128,"h":268},
	"sourceSize": {"w":170,"h":275}
},
{
	"filename": "player_down_21",
	"frame": {"x":1052,"y":1072,"w":127,"h":268},
	"rotated": false,
	"trimmed": true,
	"spriteSourceSize": {"x":23,"y":7,"w":127,"h":268},
	"sourceSize": {"w":170,"h":275}
},
{
	"filename": "player_jump_01",
	"frame": {"x":1052,"y":1072,"w":127,"h":268},
	"rotated": false,
	"trimmed": true,
	"spriteSourceSize": {"x":22,"y":7,"w":127,"h":268},
	"sourceSize": {"w":170,"h":275}
},
{
	"filename": "player_jump_02",
	"frame": {"x":2956,"y":809,"w":143,"h":261},
	"rotated": false,
	"trimmed": true,
	"spriteSourceSize": {"x":14,"y":14,"w":143,"h":261},
	"sourceSize": {"w":170,"h":275}
},
{
	"filename": "player_jump_03",
	"frame": {"x":1523,"y":812,"w":137,"h":253},
	"rotated": false,
	"trimmed": true,
	"spriteSourceSize": {"x":10,"y":22,"w":137,"h":253},
	"sourceSize": {"w":170,"h":275}
},
{
	"filename": "player_jump_04",
	"frame": {"x":1743,"y":272,"w":163,"h":261},
	"rotated": false,
	"trimmed": true,
	"spriteSourceSize": {"x":7,"y":14,"w":163,"h":261},
	"sourceSize": {"w":170,"h":275}
},
{
	"filename": "player_jump_05",
	"frame": {"x":1059,"y":539,"w":162,"h":272},
	"rotated": false,
	"trimmed": true,
	"spriteSourceSize": {"x":8,"y":3,"w":162,"h":272},
	"sourceSize": {"w":170,"h":275}
},
{
	"filename": "player_jump_06",
	"frame": {"x":2070,"y":541,"w":153,"h":270},
	"rotated": false,
	"trimmed": true,
	"spriteSourceSize": {"x":8,"y":5,"w":153,"h":270},
	"sourceSize": {"w":170,"h":275}
},
{
	"filename": "player_jump_07",
	"frame": {"x":2377,"y":542,"w":147,"h":270},
	"rotated": false,
	"trimmed": true,
	"spriteSourceSize": {"x":8,"y":5,"w":147,"h":270},
	"sourceSize": {"w":170,"h":275}
},
{
	"filename": "player_jump_08",
	"frame": {"x":1247,"y":272,"w":162,"h":268},
	"rotated": false,
	"trimmed": true,
	"spriteSourceSize": {"x":8,"y":7,"w":162,"h":268},
	"sourceSize": {"w":170,"h":275}
},
{
	"filename": "player_jump_09",
	"frame": {"x":1081,"y":271,"w":164,"h":266},
	"rotated": false,
	"trimmed": true,
	"spriteSourceSize": {"x":6,"y":9,"w":164,"h":266},
	"sourceSize": {"w":170,"h":275}
},
{
	"filename": "player_jump_10",
	"frame": {"x":1411,"y":272,"w":163,"h":264},
	"rotated": false,
	"trimmed": true,
	"spriteSourceSize": {"x":7,"y":11,"w":163,"h":264},
	"sourceSize": {"w":170,"h":275}
},
{
	"filename": "player_jump_11",
	"frame": {"x":2067,"y":813,"w":158,"h":253},
	"rotated": false,
	"trimmed": true,
	"spriteSourceSize": {"x":7,"y":22,"w":158,"h":253},
	"sourceSize": {"w":170,"h":275}
},
{
	"filename": "player_jump_12",
	"frame": {"x":3101,"y":809,"w":144,"h":260},
	"rotated": false,
	"trimmed": true,
	"spriteSourceSize": {"x":9,"y":15,"w":144,"h":260},
	"sourceSize": {"w":170,"h":275}
},
{
	"filename": "player_jump_13",
	"frame": {"x":3801,"y":1072,"w":128,"h":266},
	"rotated": false,
	"trimmed": true,
	"spriteSourceSize": {"x":17,"y":9,"w":128,"h":266},
	"sourceSize": {"w":170,"h":275}
},
{
	"filename": "player_push_01",
	"frame": {"x":3450,"y":269,"w":128,"h":267},
	"rotated": false,
	"trimmed": true,
	"spriteSourceSize": {"x":15,"y":8,"w":128,"h":267},
	"sourceSize": {"w":170,"h":275}
},
{
	"filename": "player_push_02",
	"frame": {"x":3171,"y":269,"w":138,"h":267},
	"rotated": false,
	"trimmed": true,
	"spriteSourceSize": {"x":24,"y":8,"w":138,"h":267},
	"sourceSize": {"w":170,"h":275}
},
{
	"filename": "player_push_03",
	"frame": {"x":3717,"y":271,"w":138,"h":262},
	"rotated": false,
	"trimmed": true,
	"spriteSourceSize": {"x":22,"y":13,"w":138,"h":262},
	"sourceSize": {"w":170,"h":275}
},
{
	"filename": "player_push_04",
	"frame": {"x":2376,"y":814,"w":141,"h":259},
	"rotated": false,
	"trimmed": true,
	"spriteSourceSize": {"x":22,"y":16,"w":141,"h":259},
	"sourceSize": {"w":170,"h":275}
},
{
	"filename": "player_push_05",
	"frame": {"x":2656,"y":539,"w":150,"h":260},
	"rotated": false,
	"trimmed": true,
	"spriteSourceSize": {"x":20,"y":15,"w":150,"h":260},
	"sourceSize": {"w":170,"h":275}
},
{
	"filename": "player_push_06",
	"frame": {"x":1576,"y":272,"w":165,"h":262},
	"rotated": false,
	"trimmed": true,
	"spriteSourceSize": {"x":5,"y":13,"w":165,"h":262},
	"sourceSize": {"w":170,"h":275}
},
{
	"filename": "player_push_07",
	"frame": {"x":651,"y":807,"w":147,"h":263},
	"rotated": false,
	"trimmed": true,
	"spriteSourceSize": {"x":23,"y":12,"w":147,"h":263},
	"sourceSize": {"w":170,"h":275}
},
{
	"filename": "player_push_08",
	"frame": {"x":1884,"y":1077,"w":147,"h":263},
	"rotated": false,
	"trimmed": true,
	"spriteSourceSize": {"x":23,"y":12,"w":147,"h":263},
	"sourceSize": {"w":170,"h":275}
},
{
	"filename": "player_push_09",
	"frame": {"x":190,"y":800,"w":146,"h":264},
	"rotated": false,
	"trimmed": true,
	"spriteSourceSize": {"x":24,"y":11,"w":146,"h":264},
	"sourceSize": {"w":170,"h":275}
},
{
	"filename": "player_push_10",
	"frame": {"x":1736,"y":1079,"w":146,"h":261},
	"rotated": false,
	"trimmed": true,
	"spriteSourceSize": {"x":24,"y":14,"w":146,"h":261},
	"sourceSize": {"w":170,"h":275}
},
{
	"filename": "player_push_11",
	"frame": {"x":2808,"y":802,"w":146,"h":260},
	"rotated": false,
	"trimmed": true,
	"spriteSourceSize": {"x":24,"y":15,"w":146,"h":260},
	"sourceSize": {"w":170,"h":275}
},
{
	"filename": "player_push_12",
	"frame": {"x":2808,"y":540,"w":149,"h":260},
	"rotated": false,
	"trimmed": true,
	"spriteSourceSize": {"x":21,"y":15,"w":149,"h":260},
	"sourceSize": {"w":170,"h":275}
},
{
	"filename": "player_push_13",
	"frame": {"x":2612,"y":1075,"w":138,"h":265},
	"rotated": false,
	"trimmed": true,
	"spriteSourceSize": {"x":16,"y":10,"w":138,"h":265},
	"sourceSize": {"w":170,"h":275}
},
{
	"filename": "player_push_14",
	"frame": {"x":3781,"y":535,"w":128,"h":267},
	"rotated": false,
	"trimmed": true,
	"spriteSourceSize": {"x":18,"y":8,"w":128,"h":267},
	"sourceSize": {"w":170,"h":275}
},
{
	"filename": "player_push_15",
	"frame": {"x":338,"y":806,"w":157,"h":264},
	"rotated": false,
	"trimmed": true,
	"spriteSourceSize": {"x":14,"y":12,"w":157,"h":264},
	"sourceSize": {"w":171,"h":276}
},
{
	"filename": "player_push_16",
	"frame": {"x":497,"y":806,"w":152,"h":264},
	"rotated": false,
	"trimmed": true,
	"spriteSourceSize": {"x":19,"y":12,"w":152,"h":264},
	"sourceSize": {"w":171,"h":276}
},
{
	"filename": "player_push_17",
	"frame": {"x":1908,"y":272,"w":160,"h":265},
	"rotated": false,
	"trimmed": true,
	"spriteSourceSize": {"x":10,"y":11,"w":160,"h":265},
	"sourceSize": {"w":170,"h":276}
},
{
	"filename": "player_push_18",
	"frame": {"x":800,"y":808,"w":153,"h":262},
	"rotated": false,
	"trimmed": true,
	"spriteSourceSize": {"x":18,"y":13,"w":153,"h":262},
	"sourceSize": {"w":171,"h":275}
},
{
	"filename": "player_turn_01",
	"frame": {"x":533,"y":1072,"w":128,"h":268},
	"rotated": false,
	"trimmed": true,
	"spriteSourceSize": {"x":17,"y":7,"w":128,"h":268},
	"sourceSize": {"w":170,"h":275}
},
{
	"filename": "player_turn_02",
	"frame": {"x":2526,"y":542,"w":128,"h":270},
	"rotated": false,
	"trimmed": true,
	"spriteSourceSize": {"x":19,"y":5,"w":128,"h":270},
	"sourceSize": {"w":170,"h":275}
},
{
	"filename": "player_turn_03",
	"frame": {"x":3247,"y":804,"w":135,"h":265},
	"rotated": false,
	"trimmed": true,
	"spriteSourceSize": {"x":20,"y":10,"w":135,"h":265},
	"sourceSize": {"w":170,"h":275}
},
{
	"filename": "player_turn_04",
	"frame": {"x":3238,"y":538,"w":138,"h":264},
	"rotated": false,
	"trimmed": true,
	"spriteSourceSize": {"x":20,"y":11,"w":138,"h":264},
	"sourceSize": {"w":170,"h":275}
},
{
	"filename": "player_turn_05",
	"frame": {"x":2328,"y":1075,"w":140,"h":265},
	"rotated": false,
	"trimmed": true,
	"spriteSourceSize": {"x":16,"y":10,"w":140,"h":265},
	"sourceSize": {"w":170,"h":275}
},
{
	"filename": "player_turn_06",
	"frame": {"x":2070,"y":272,"w":159,"h":267},
	"rotated": false,
	"trimmed": true,
	"spriteSourceSize": {"x":11,"y":8,"w":159,"h":267},
	"sourceSize": {"w":170,"h":275}
},
{
	"filename": "player_turn_07",
	"frame": {"x":2551,"y":271,"w":159,"h":266},
	"rotated": false,
	"trimmed": true,
	"spriteSourceSize": {"x":11,"y":9,"w":159,"h":266},
	"sourceSize": {"w":170,"h":275}
},
{
	"filename": "player_turn_08",
	"frame": {"x":3235,"y":1,"w":170,"h":266},
	"rotated": false,
	"trimmed": true,
	"spriteSourceSize": {"x":0,"y":9,"w":170,"h":266},
	"sourceSize": {"w":170,"h":275}
},
{
	"filename": "player_turn_09",
	"frame": {"x":743,"y":267,"w":167,"h":268},
	"rotated": false,
	"trimmed": true,
	"spriteSourceSize": {"x":0,"y":7,"w":167,"h":268},
	"sourceSize": {"w":170,"h":275}
},
{
	"filename": "player_turn_10",
	"frame": {"x":3750,"y":1,"w":168,"h":268},
	"rotated": false,
	"trimmed": true,
	"spriteSourceSize": {"x":0,"y":7,"w":168,"h":268},
	"sourceSize": {"w":170,"h":275}
},
{
	"filename": "player_turn_11",
	"frame": {"x":2718,"y":1,"w":170,"h":268},
	"rotated": false,
	"trimmed": true,
	"spriteSourceSize": {"x":0,"y":7,"w":170,"h":268},
	"sourceSize": {"w":170,"h":275}
},
{
	"filename": "player_turn_12",
	"frame": {"x":403,"y":267,"w":168,"h":268},
	"rotated": false,
	"trimmed": true,
	"spriteSourceSize": {"x":1,"y":7,"w":168,"h":268},
	"sourceSize": {"w":170,"h":275}
},
{
	"filename": "player_turn_13",
	"frame": {"x":573,"y":267,"w":168,"h":268},
	"rotated": false,
	"trimmed": true,
	"spriteSourceSize": {"x":2,"y":7,"w":168,"h":268},
	"sourceSize": {"w":170,"h":275}
},
{
	"filename": "player_turn_14",
	"frame": {"x":3407,"y":1,"w":170,"h":266},
	"rotated": false,
	"trimmed": true,
	"spriteSourceSize": {"x":0,"y":9,"w":170,"h":266},
	"sourceSize": {"w":170,"h":275}
},
{
	"filename": "player_turn_15",
	"frame": {"x":2712,"y":271,"w":158,"h":266},
	"rotated": false,
	"trimmed": true,
	"spriteSourceSize": {"x":0,"y":9,"w":158,"h":266},
	"sourceSize": {"w":170,"h":275}
},
{
	"filename": "player_turn_16",
	"frame": {"x":2872,"y":271,"w":158,"h":267},
	"rotated": false,
	"trimmed": true,
	"spriteSourceSize": {"x":0,"y":8,"w":158,"h":267},
	"sourceSize": {"w":170,"h":275}
},
{
	"filename": "player_turn_17",
	"frame": {"x":2470,"y":1075,"w":140,"h":265},
	"rotated": false,
	"trimmed": true,
	"spriteSourceSize": {"x":13,"y":10,"w":140,"h":265},
	"sourceSize": {"w":170,"h":275}
},
{
	"filename": "player_turn_18",
	"frame": {"x":3378,"y":538,"w":138,"h":264},
	"rotated": false,
	"trimmed": true,
	"spriteSourceSize": {"x":11,"y":11,"w":138,"h":264},
	"sourceSize": {"w":170,"h":275}
},
{
	"filename": "player_turn_19",
	"frame": {"x":3384,"y":804,"w":135,"h":265},
	"rotated": false,
	"trimmed": true,
	"spriteSourceSize": {"x":14,"y":10,"w":135,"h":265},
	"sourceSize": {"w":170,"h":275}
},
{
	"filename": "player_turn_20",
	"frame": {"x":3521,"y":791,"w":128,"h":270},
	"rotated": false,
	"trimmed": true,
	"spriteSourceSize": {"x":22,"y":5,"w":128,"h":270},
	"sourceSize": {"w":170,"h":275}
},
{
	"filename": "player_turn_21",
	"frame": {"x":663,"y":1072,"w":128,"h":268},
	"rotated": false,
	"trimmed": true,
	"spriteSourceSize": {"x":24,"y":7,"w":128,"h":268},
	"sourceSize": {"w":170,"h":275}
},
{
	"filename": "player_walk_01",
	"frame": {"x":3535,"y":1063,"w":128,"h":270},
	"rotated": false,
	"trimmed": true,
	"spriteSourceSize": {"x":21,"y":5,"w":128,"h":270},
	"sourceSize": {"w":170,"h":275}
},
{
	"filename": "player_walk_02",
	"frame": {"x":1654,"y":536,"w":130,"h":271},
	"rotated": false,
	"trimmed": true,
	"spriteSourceSize": {"x":20,"y":4,"w":130,"h":271},
	"sourceSize": {"w":170,"h":275}
},
{
	"filename": "player_walk_03",
	"frame": {"x":1510,"y":538,"w":142,"h":272},
	"rotated": false,
	"trimmed": true,
	"spriteSourceSize": {"x":14,"y":3,"w":142,"h":272},
	"sourceSize": {"w":170,"h":275}
},
{
	"filename": "player_walk_04",
	"frame": {"x":3665,"y":804,"w":134,"h":265},
	"rotated": false,
	"trimmed": true,
	"spriteSourceSize": {"x":18,"y":10,"w":134,"h":265},
	"sourceSize": {"w":170,"h":275}
},
{
	"filename": "player_walk_05",
	"frame": {"x":1938,"y":539,"w":130,"h":271},
	"rotated": false,
	"trimmed": true,
	"spriteSourceSize": {"x":20,"y":4,"w":130,"h":271},
	"sourceSize": {"w":170,"h":275}
},
{
	"filename": "player_walk_06",
	"frame": {"x":1,"y":1066,"w":129,"h":274},
	"rotated": false,
	"trimmed": true,
	"spriteSourceSize": {"x":21,"y":1,"w":129,"h":274},
	"sourceSize": {"w":170,"h":275}
},
{
	"filename": "player_walk_07",
	"frame": {"x":132,"y":1066,"w":128,"h":274},
	"rotated": false,
	"trimmed": true,
	"spriteSourceSize": {"x":21,"y":1,"w":128,"h":274},
	"sourceSize": {"w":170,"h":275}
},
{
	"filename": "player_walk_08",
	"frame": {"x":3665,"y":1071,"w":134,"h":265},
	"rotated": false,
	"trimmed": true,
	"spriteSourceSize": {"x":18,"y":10,"w":134,"h":265},
	"sourceSize": {"w":170,"h":275}
},
{
	"filename": "player_walk_09",
	"frame": {"x":793,"y":1072,"w":128,"h":268},
	"rotated": false,
	"trimmed": true,
	"spriteSourceSize": {"x":21,"y":7,"w":128,"h":268},
	"sourceSize": {"w":170,"h":275}
},
{
	"filename": "player_walk_10",
	"frame": {"x":1380,"y":542,"w":128,"h":269},
	"rotated": false,
	"trimmed": true,
	"spriteSourceSize": {"x":21,"y":6,"w":128,"h":269},
	"sourceSize": {"w":170,"h":275}
},
{
	"filename": "remote_01",
	"frame": {"x":3138,"y":1071,"w":126,"h":268},
	"rotated": false,
	"trimmed": true,
	"spriteSourceSize": {"x":61,"y":7,"w":126,"h":268},
	"sourceSize": {"w":249,"h":275}
},
{
	"filename": "remote_02",
	"frame": {"x":1457,"y":1071,"w":126,"h":269},
	"rotated": false,
	"trimmed": true,
	"spriteSourceSize": {"x":61,"y":6,"w":126,"h":269},
	"sourceSize": {"w":249,"h":275}
},
{
	"filename": "remote_03",
	"frame": {"x":1223,"y":542,"w":155,"h":269},
	"rotated": false,
	"trimmed": true,
	"spriteSourceSize": {"x":61,"y":6,"w":155,"h":269},
	"sourceSize": {"w":249,"h":275}
},
{
	"filename": "remote_04",
	"frame": {"x":912,"y":267,"w":167,"h":269},
	"rotated": false,
	"trimmed": true,
	"spriteSourceSize": {"x":61,"y":6,"w":167,"h":269},
	"sourceSize": {"w":249,"h":275}
},
{
	"filename": "remote_05",
	"frame": {"x":2372,"y":1,"w":171,"h":269},
	"rotated": false,
	"trimmed": true,
	"spriteSourceSize": {"x":61,"y":6,"w":171,"h":269},
	"sourceSize": {"w":249,"h":275}
},
{
	"filename": "remote_06",
	"frame": {"x":1316,"y":1,"w":174,"h":269},
	"rotated": false,
	"trimmed": true,
	"spriteSourceSize": {"x":61,"y":6,"w":174,"h":269},
	"sourceSize": {"w":249,"h":275}
},
{
	"filename": "remote_07",
	"frame": {"x":1492,"y":1,"w":174,"h":269},
	"rotated": false,
	"trimmed": true,
	"spriteSourceSize": {"x":61,"y":6,"w":174,"h":269},
	"sourceSize": {"w":249,"h":275}
},
{
	"filename": "remote_08",
	"frame": {"x":1668,"y":1,"w":174,"h":269},
	"rotated": false,
	"trimmed": true,
	"spriteSourceSize": {"x":61,"y":6,"w":174,"h":269},
	"sourceSize": {"w":249,"h":275}
},
{
	"filename": "remote_09",
	"frame": {"x":1844,"y":1,"w":174,"h":269},
	"rotated": false,
	"trimmed": true,
	"spriteSourceSize": {"x":61,"y":6,"w":174,"h":269},
	"sourceSize": {"w":249,"h":275}
},
{
	"filename": "remote_10",
	"frame": {"x":1139,"y":1,"w":175,"h":268},
	"rotated": false,
	"trimmed": true,
	"spriteSourceSize": {"x":61,"y":7,"w":175,"h":268},
	"sourceSize": {"w":249,"h":275}
},
{
	"filename": "remote_11",
	"frame": {"x":2020,"y":1,"w":174,"h":269},
	"rotated": false,
	"trimmed": true,
	"spriteSourceSize": {"x":61,"y":6,"w":174,"h":269},
	"sourceSize": {"w":249,"h":275}
},
{
	"filename": "remote_12",
	"frame": {"x":2196,"y":1,"w":174,"h":269},
	"rotated": false,
	"trimmed": true,
	"spriteSourceSize": {"x":61,"y":6,"w":174,"h":269},
	"sourceSize": {"w":249,"h":275}
}],
"meta": {
	"app": "https://www.codeandweb.com/texturepacker",
	"version": "1.0",
	"image": "player.png",
	"format": "RGBA8888",
	"size": {"w":3930,"h":1341},
	"scale": "0.5",
	"smartupdate": "$TexturePacker:SmartUpdate:3c38dd445ce46e6fe3465937118ba280:898eb8b110bdf400cae4022d05521859:86d5339b780aedd87b35e2b7c0a7e11b$"
}
}
